<define-tag pagetitle>DLA-1092-1 libarchive</define-tag>
<define-tag report_date>2017-9-8</define-tag>
<define-tag secrefs>CVE-2017-14166 Bug##874539</define-tag>
<define-tag packages>libarchive</define-tag>
<define-tag isvulnerable>yes</define-tag>
<define-tag fixed>yes</define-tag>
<define-tag fixed-section>no</define-tag>

#use wml::debian::security

