<define-tag pagetitle>DLA-1071-1 qemu-kvm</define-tag>
<define-tag report_date>2017-8-28</define-tag>
<define-tag secrefs>CVE-2017-6505 CVE-2017-8309 CVE-2017-10664 CVE-2017-11434</define-tag>
<define-tag packages>qemu-kvm</define-tag>
<define-tag isvulnerable>yes</define-tag>
<define-tag fixed>yes</define-tag>
<define-tag fixed-section>no</define-tag>

#use wml::debian::security

