<define-tag pagetitle>DLA-589-1 mupdf</define-tag>
<define-tag report_date>2016-8-8</define-tag>
<define-tag secrefs>CVE-2016-6525 Bug#833417</define-tag>
<define-tag packages>mupdf</define-tag>
<define-tag isvulnerable>yes</define-tag>
<define-tag fixed>yes</define-tag>
<define-tag fixed-section>no</define-tag>

#use wml::debian::security

